Overview of the wcde package
…
Getting data into R

The get_wcde() function can be used to download data from the Wittgenstein Centre Human Capital Data Explorer. It requires three user inputs

indicator: a short code for the indicator of interest

scenario: a number referring to a SSP narrative, by default 2 is used (for SSP2)

country_code (or country_name): corresponding to the country of interest

library(wcde)
# download education specific tfr data
get_wcde(indicator = "etfr", 
         country_name = c("Brazil", "Albania"))
#> # A tibble: 204 x 6
#>    scenario name    country_code education          period     etfr
#>       <dbl> <chr>          <dbl> <chr>              <chr>     <dbl>
#>  1        2 Brazil            76 No Education       2015-2020  2.47
#>  2        2 Albania            8 No Education       2015-2020  1.88
#>  3        2 Brazil            76 Incomplete Primary 2015-2020  2.47
#>  4        2 Albania            8 Incomplete Primary 2015-2020  1.88
#>  5        2 Brazil            76 Primary            2015-2020  2.47
#>  6        2 Albania            8 Primary            2015-2020  1.88
#>  7        2 Brazil            76 Lower Secondary    2015-2020  1.89
#>  8        2 Albania            8 Lower Secondary    2015-2020  1.9 
#>  9        2 Brazil            76 Upper Secondary    2015-2020  1.37
#> 10        2 Albania            8 Upper Secondary    2015-2020  1.57
#> # ... with 194 more rows

# download education specific survivorship rates
get_wcde(indicator = "eassr", 
         country_name = c("Niger", "Korea"))
#> # A tibble: 8,976 x 8
#>    scenario name         country_code age     sex   education      period  eassr
#>       <dbl> <chr>               <dbl> <chr>   <chr> <chr>          <chr>   <dbl>
#>  1        2 Niger                 562 Newborn Male  No Education   2015-2~  91.6
#>  2        2 Republic of~          410 Newborn Male  No Education   2015-2~  99.4
#>  3        2 Niger                 562 Newborn Male  Incomplete Pr~ 2015-2~  92  
#>  4        2 Republic of~          410 Newborn Male  Incomplete Pr~ 2015-2~  99.5
#>  5        2 Niger                 562 Newborn Male  Primary        2015-2~  92.5
#>  6        2 Republic of~          410 Newborn Male  Primary        2015-2~  99.5
#>  7        2 Niger                 562 Newborn Male  Lower Seconda~ 2015-2~  93.4
#>  8        2 Republic of~          410 Newborn Male  Lower Seconda~ 2015-2~  99.6
#>  9        2 Niger                 562 Newborn Male  Upper Seconda~ 2015-2~  95.2
#> 10        2 Republic of~          410 Newborn Male  Upper Seconda~ 2015-2~  99.7
#> # ... with 8,966 more rows
…
get_wcde(indicator = "sexratio", 
         country_name = c("China", "South Korea")) %>%
  filter(year == 2020)
#> # A tibble: 44 x 6
#>    scenario name              country_code age     year sexratio
#>       <dbl> <chr>                    <dbl> <chr>  <dbl>    <dbl>
#>  1        2 China                      156 All     2020     1.06
#>  2        2 Republic of Korea          410 All     2020     1   
#>  3        2 China                      156 0--4    2020     1.15
#>  4        2 Republic of Korea          410 0--4    2020     1.07
#>  5        2 China                      156 5--9    2020     1.16
#>  6        2 Republic of Korea          410 5--9    2020     1.07
#>  7        2 China                      156 10--14  2020     1.17
#>  8        2 Republic of Korea          410 10--14  2020     1.07
#>  9        2 China                      156 15--19  2020     1.16
#> 10        2 Republic of Korea          410 15--19  2020     1.1 
#> # ... with 34 more rows

Past data is only available for selected indicators. These can be viewed using the past indicator column:

wic_indicators %>%
  filter(past) %>%
  select(1:2)
#> # A tibble: 28 x 2
#>    indicator description                                     
#>    <chr>     <chr>                                           
#>  1 pop       Population Size (000's)                         
#>  2 bpop      Population Size by Broad Age (000's)            
#>  3 epop      Population Size by Education (000's)            
#>  4 prop      Educational Attainment Distribution             
#>  5 bprop     Educational Attainment Distribution by Broad Age
#>  6 growth    Average Annual Growth Rate                      
#>  7 nirate    Average Annual Rate of Natural Increase         
#>  8 sexratio  Sex Ratio                                       
#>  9 mage      Population Median Age                           
#> 10 tdr       Total Dependency Ratio                          
#> # ... with 18 more rows
…
Country names and codes

Country names are guessed using the countrycode package.

The get_wcde() accepts ISO alpha_numeric codes for countries:

get_wcde(indicator = "tfr", 
         country_name = c("U.A.E", "Espania", "sterreich"))
#> # A tibble: 90 x 5
#>    scenario name                 country_code period      tfr
#>       <dbl> <chr>                       <dbl> <chr>     <dbl>
#>  1        2 United Arab Emirates          784 1950-1955  6.97
#>  2        2 Spain                         724 1950-1955  2.53
#>  3        2 Austria                        40 1950-1955  2.1 
#>  4        2 United Arab Emirates          784 1955-1960  6.97
#>  5        2 Spain                         724 1955-1960  2.7 
#>  6        2 Austria                        40 1955-1960  2.57
#>  7        2 United Arab Emirates          784 1960-1965  6.87
#>  8        2 Spain                         724 1960-1965  2.81
#>  9        2 Austria                        40 1960-1965  2.78
#> 10        2 United Arab Emirates          784 1965-1970  6.77
#> # ... with 80 more rows

get_wcde(indicator = "etfr", country_code = c(44, 100))
#> # A tibble: 204 x 6
#>    scenario name     country_code education          period     etfr
#>       <dbl> <chr>           <dbl> <chr>              <chr>     <dbl>
#>  1        2 Bahamas            44 No Education       2015-2020  2.71
#>  2        2 Bulgaria          100 No Education       2015-2020  1.72
#>  3        2 Bahamas            44 Incomplete Primary 2015-2020  2.71
#>  4        2 Bulgaria          100 Incomplete Primary 2015-2020  1.72
#>  5        2 Bahamas            44 Primary            2015-2020  2.71
#>  6        2 Bulgaria          100 Primary            2015-2020  1.72
#>  7        2 Bahamas            44 Lower Secondary    2015-2020  2.09
#>  8        2 Bulgaria          100 Lower Secondary    2015-2020  1.73
#>  9        2 Bahamas            44 Upper Secondary    2015-2020  1.76
#> 10        2 Bulgaria          100 Upper Secondary    2015-2020  1.44
#> # ... with 194 more rows

A full list of available countries and region aggregates can be found in the wic_locations data frame.

wic_locations
#> # A tibble: 230 x 5
#>    name                            isono continent region             dim    
#>    <chr>                           <dbl> <chr>     <chr>              <chr>  
#>  1 World                             900 <NA>      <NA>               area   
#>  2 Africa                            903 <NA>      <NA>               area   
#>  3 Asia                              935 <NA>      <NA>               area   
#>  4 Europe                            908 <NA>      <NA>               area   
#>  5 Latin America and the Caribbean   904 <NA>      <NA>               area   
#>  6 Northern America                  905 <NA>      <NA>               area   
#>  7 Oceania                           909 <NA>      <NA>               area   
#>  8 Afghanistan                         4 Asia      South-Central Asia country
#>  9 Albania                             8 Europe    Southern Europe    country
#> 10 Algeria                            12 Africa    Northern Africa    country
#> # ... with 220 more rows
…
All countries data

Data for all countries can be obtained by not setting country_name or country_code

get_wcde(indicator = "mage")
#> # A tibble: 7,099 x 5
#>    scenario name                     country_code  year  mage
#>       <dbl> <chr>                           <dbl> <dbl> <dbl>
#>  1        2 Bulgaria                          100  1950  27.3
#>  2        2 Myanmar                           104  1950  22.8
#>  3        2 Burundi                           108  1950  19.5
#>  4        2 Belarus                           112  1950  27.2
#>  5        2 Cambodia                          116  1950  18.7
#>  6        2 Algeria                            12  1950  19.4
#>  7        2 Cameroon                          120  1950  20.8
#>  8        2 Canada                            124  1950  27.7
#>  9        2 Cape Verde                        132  1950  23  
#> 10        2 Central African Republic          140  1950  22.5
#> # ... with 7,089 more rows
…
mi <- tibble(ind = c("odr", "nirate", "ggapedu25")) %>%
  mutate(d = map(.x = ind, .f = ~get_wcde(indicator = .x)))
mi
#> # A tibble: 3 x 2
#>   ind       d                    
#>   <chr>     <list>               
#> 1 odr       <tibble [7,099 x 5]> 
#> 2 nirate    <tibble [6,870 x 5]> 
#> 3 ggapedu25 <tibble [41,346 x 6]>

mi %>%
  filter(ind == "odr") %>%
  select(-ind) %>%
  unnest(cols = d)
#> # A tibble: 7,099 x 5
#>    scenario name                     country_code  year   odr
#>       <dbl> <chr>                           <dbl> <dbl> <dbl>
#>  1        2 Bulgaria                          100  1950  0.1 
#>  2        2 Myanmar                           104  1950  0.05
#>  3        2 Burundi                           108  1950  0.06
#>  4        2 Belarus                           112  1950  0.13
#>  5        2 Cambodia                          116  1950  0.05
#>  6        2 Algeria                            12  1950  0.06
#>  7        2 Cameroon                          120  1950  0.06
#>  8        2 Canada                            124  1950  0.12
#>  9        2 Cape Verde                        132  1950  0.13
#> 10        2 Central African Republic          140  1950  0.09
#> # ... with 7,089 more rows

mi %>%
  filter(ind == "nirate") %>%
  select(-ind) %>%
  unnest(cols = d)
#> # A tibble: 6,870 x 5
#>    scenario name                     country_code period    nirate
#>       <dbl> <chr>                           <dbl> <chr>      <dbl>
#>  1        2 Bulgaria                          100 1950-1955   11.1
#>  2        2 Myanmar                           104 1950-1955   19.1
#>  3        2 Burundi                           108 1950-1955   24.1
#>  4        2 Belarus                           112 1950-1955   10.1
#>  5        2 Cambodia                          116 1950-1955   25.9
#>  6        2 Algeria                            12 1950-1955   27.1
#>  7        2 Cameroon                          120 1950-1955   17.6
#>  8        2 Canada                            124 1950-1955   18.9
#>  9        2 Cape Verde                        132 1950-1955   26.9
#> 10        2 Central African Republic          140 1950-1955   10.7
#> # ... with 6,860 more rows

mi %>%
  filter(ind == "ggapedu25") %>%
  select(-ind) %>%
  unnest(cols = d)
#> # A tibble: 41,346 x 6
#>    scenario name                     country_code  year education    ggapedu25
#>       <dbl> <chr>                           <dbl> <dbl> <chr>            <dbl>
#>  1        2 Bulgaria                          100  1950 No Education       -20
#>  2        2 Myanmar                           104  1950 No Education       -13
#>  3        2 Burundi                           108  1950 No Education        -6
#>  4        2 Belarus                           112  1950 No Education       -10
#>  5        2 Cambodia                          116  1950 No Education       -21
#>  6        2 Algeria                            12  1950 No Education        -2
#>  7        2 Cameroon                          120  1950 No Education       -13
#>  8        2 Canada                            124  1950 No Education        -2
#>  9        2 Cape Verde                        132  1950 No Education        -9
#> 10        2 Central African Republic          140  1950 No Education        -1
#> # ... with 41,336 more rows

Working with population data

The education population data in the data explorer, obtained by setting indicator = "epop" in get_wcde(), provide results by up to three different education categorizations (4, 6 and 8 education groups).

d <- get_wcde(indicator = "epop", country_code = 900)
d
#> # A tibble: 16,368 x 8
#>    scenario name  country_code age   sex   education           year     epop
#>       <dbl> <chr>        <dbl> <chr> <chr> <chr>              <dbl>    <dbl>
#>  1        2 World          900 All   Both  Total               1950 2541292.
#>  2        2 World          900 All   Both  Under 15            1950  868844.
#>  3        2 World          900 All   Both  No Education        1950  763612.
#>  4        2 World          900 All   Both  Incomplete Primary  1950  197922.
#>  5        2 World          900 All   Both  Primary             1950  351588.
#>  6        2 World          900 All   Both  Lower Secondary     1950  209181.
#>  7        2 World          900 All   Both  Upper Secondary     1950  120001.
#>  8        2 World          900 All   Both  Post Secondary      1950   30143.
#>  9        2 World          900 0--4  Both  Total               1950  338387.
#> 10        2 World          900 0--4  Both  Under 15            1950  338387.
#> # ... with 16,358 more rows

As the data frame contains multiple groupings, the edu_group_sum() function can be used to provide education specific population data. Users can specify the education groupings by setting the n argument to 4, 6 or 8.

d %>% 
  edu_group_sum(n = 4) %>%
  filter(year == 2020)
#> # A tibble: 210 x 8
#>    scenario name  country_code  year age   sex    education         epop
#>       <dbl> <fct>        <dbl> <dbl> <fct> <fct>  <fct>            <dbl>
#>  1        2 World          900  2020 0--4  Male   Under 15       340742.
#>  2        2 World          900  2020 0--4  Male   No Education        0 
#>  3        2 World          900  2020 0--4  Male   Primary             0 
#>  4        2 World          900  2020 0--4  Male   Secondary           0 
#>  5        2 World          900  2020 0--4  Male   Post Secondary      0 
#>  6        2 World          900  2020 0--4  Female Under 15       319616.
#>  7        2 World          900  2020 0--4  Female No Education        0 
#>  8        2 World          900  2020 0--4  Female Primary             0 
#>  9        2 World          900  2020 0--4  Female Secondary           0 
#> 10        2 World          900  2020 0--4  Female Post Secondary      0 
#> # ... with 200 more rows
…
Population pyramids

Create population pyramids by setting male population values to negative equivalent to allow for divergent columns from the y axis.

w <- d %>% 
  edu_group_sum(n = 4) %>%
  mutate(pop = ifelse(test = sex == "Male", yes = -epop, no = epop),
         pop = pop/1e3) 
w
#> # A tibble: 6,510 x 9
#>    scenario name  country_code  year age   sex    education         epop   pop
#>       <dbl> <fct>        <dbl> <dbl> <fct> <fct>  <fct>            <dbl> <dbl>
#>  1        2 World          900  1950 0--4  Male   Under 15       172362. -172.
#>  2        2 World          900  1950 0--4  Male   No Education        0     0 
#>  3        2 World          900  1950 0--4  Male   Primary             0     0 
#>  4        2 World          900  1950 0--4  Male   Secondary           0     0 
#>  5        2 World          900  1950 0--4  Male   Post Secondary      0     0 
#>  6        2 World          900  1950 0--4  Female Under 15       166026.  166.
#>  7        2 World          900  1950 0--4  Female No Education        0     0 
#>  8        2 World          900  1950 0--4  Female Primary             0     0 
#>  9        2 World          900  1950 0--4  Female Secondary           0     0 
#> 10        2 World          900  1950 0--4  Female Post Secondary      0     0 
#> # ... with 6,500 more rows
…
